{
  "name": "Campaign",
  "plural": "campaigns",
  "base": "PersistedModel",
  "idInjection": true,
  "options": {
    "validateUpsert": true
  },
  "properties": {
    "name": {
      "type": "string",
      "required": true,
      "index": true
    },
    "faxNumbers": {
      "type": "array",
      "required": true
    },
    "title": {
      "type": "string",
      "required": true
    },
    "description": {
      "type": "string",
      "required": true
    },
    "faxTo": {
      "type": "string",
      "required": true
    },
    "faxMessage": {
      "type": "string"
    },
    "faxBody": {
      "type": "string",
      "required": true
    },
    "status": {
      "type": "string",
      "default": "pending"
    },
    "signatureCount": {
      "type": "number",
      "default": 0
    },
    "target": {
      "type": "number",
      "default": 1000
    },
    "created": {
      "type": "date",
      "required": true,
      "index": true,
      "default": "$now"
    }
  },
  "validations": [],
  "relations": {
    "picture": {
      "type": "embedsOne",
      "model": "ImageDataType",
      "property": "_picture",
      "scope": {
        "include": "Image"
      }
    },
    "faxFile": {
      "type": "embedsOne",
      "model": "FileDataType",
      "property": "_faxFile",
      "scope": {
        "include": "File"
      }
    },
    "signatures": {
      "type": "hasMany",
      "model": "Signature",
      "foreignKey": "campaignId"
    }
  },
  "acls": [
    {
      "accessType": "*",
      "principalType": "ROLE",
      "principalId": "$everyone",
      "permission": "DENY"
    },
    {
      "accessType": "*",
      "principalType": "ROLE",
      "principalId": "$everyone",
      "permission": "ALLOW",
      "property": "__create__signatures"
    },
    {
      "accessType": "READ",
      "principalType": "ROLE",
      "principalId": "admin",
      "permission": "ALLOW"
    },
    {
      "accessType": "WRITE",
      "principalType": "ROLE",
      "principalId": "admin",
      "permission": "ALLOW"
    },
    {
      "accessType": "EXECUTE",
      "principalType": "ROLE",
      "principalId": "admin",
      "permission": "ALLOW"
    }
  ],
  "methods": {}
}
