{
  "appName": "vettiverFax",
  "baseUrl": "http://localhost:4000",
  "restApiRoot": "/api",
  "host": "0.0.0.0",
  "port": 4000,
  "remoting": {
    "context": {
      "enableHttpContext": false
    },
    "rest": {
      "normalizeHttpPath": false,
      "xml": false
    },
    "json": {
      "strict": false,
      "limit": "100kb"
    },
    "urlencoded": {
      "extended": true,
      "limit": "100kb"
    },
    "cors": false,
    "handleErrors": false
  },
  "logEntries": {
    "apiKey": "25c90b98-2674-4e03-b518-3688389185ff",
    "level": "info"
  },
  "logging": {
    "levels": {
      "stdout": "info",
      "default": "info"
    }
  },
  "phaxio": {
    "apiKey": "3366674e8461feaf8ba9ce6175ce4aa1de610dec",
    "secret": "e7f5ce260204322d140798d1b42a221e88a963f1"
  },
  "admin": {
    "username": "VettiverAdmin",
    "password": "vettiFellows!@#$",
    "email": "kaushik.subman@gmail.com"
  },
  "legacyExplorer": false
}
